---
http_interactions:
- request:
    method: get
    uri: https://api.hubapi.com/engagements/v1/engagements/recent/modified?hapikey=demo
    body:
      encoding: US-ASCII
      string: ''
    headers: {}
  response:
    status:
      code: 200
      message: OK
    headers:
      Access-Control-Allow-Credentials:
      - 'false'
      Access-Control-Allow-Headers:
      - Origin, X-Requested-With, Content-Type, Accept, Accept-Charset, Accept-Encoding,
        X-Override-Internal-Permissions, X-Properties-Source, X-Properties-SourceId,
        X-Properties-Flag, X-Hubspot-User-Id, X-Hubspot-Trace, X-Hubspot-Callee, X-Hubspot-Offset,
        X-Hubspot-No-Trace, X-HubSpot-Request-Source, X-HubSpot-Request-Reason, Subscription-Billing-Auth-Token,
        X-App-CSRF, X-Tools-CSRF, Online-Payment-Signing-UUID, X-Source, X-SourceId
      Access-Control-Allow-Methods:
      - GET, OPTIONS, PUT, POST, DELETE, PATCH, HEAD
      Content-Type:
      - application/json; charset=UTF-8
      Content-Length:
      - '7941'
      Date:
      - Mon, 25 Sep 2017 10:30:00 GMT
      Connection:
      - keep-alive
    body:
      encoding: US-ASCII
      string: ! '{"results":[{"engagement":{"id":496855598,"portalId":62515,"active":true,"createdAt":1506249164719,"lastUpdated":1506249164719,"ownerId":2978720,"type":"NOTE","timestamp":636418459634654854},"associations":{"contactIds":[860925],"companyIds":[],"dealIds":[],"ownerIds":[],"workflowIds":[],"ticketIds":[]},"metadata":{"body":"Oferta
        trimisa pentru Recent Update Hi Record11. <br/>Oferta este la: . <br/>A fost
        trimisa de catre . <br/>"}},{"engagement":{"id":496419043,"portalId":62515,"active":true,"createdAt":1506185159550,"lastUpdated":1506185159550,"ownerId":2978720,"type":"NOTE","timestamp":636417819585148637},"associations":{"contactIds":[860674],"companyIds":[],"dealIds":[],"ownerIds":[],"workflowIds":[],"ticketIds":[]},"metadata":{"body":"Oferta
        trimisa pentru John cruz. <br/>Oferta este la: . <br/>A fost trimisa de catre
        . <br/>"}},{"engagement":{"id":490818906,"portalId":62515,"active":true,"createdAt":1505886216207,"lastUpdated":1505886216207,"ownerId":2978720,"type":"NOTE","timestamp":636414830161372495},"associations":{"contactIds":[860974],"companyIds":[],"dealIds":[],"ownerIds":[],"workflowIds":[],"ticketIds":[]},"metadata":{"body":"Oferta
        trimisa pentru John cruz. <br/>Oferta este la: . <br/>A fost trimisa de catre
        . <br/>"}},{"engagement":{"id":489045411,"portalId":62515,"active":true,"createdAt":1505804640350,"lastUpdated":1505804640350,"createdBy":215482,"modifiedBy":215482,"ownerId":70,"type":"NOTE","timestamp":1505804640350},"associations":{"contactIds":[],"companyIds":[548578748],"dealIds":[],"ownerIds":[],"workflowIds":[],"ticketIds":[]},"attachments":[{"id":5344867333}],"metadata":{"body":""}},{"engagement":{"id":488798566,"portalId":62515,"active":true,"createdAt":1505803968773,"lastUpdated":1505803968773,"createdBy":215482,"modifiedBy":215482,"ownerId":70,"type":"NOTE","timestamp":1505803968773},"associations":{"contactIds":[],"companyIds":[],"dealIds":[192735133],"ownerIds":[],"workflowIds":[],"ticketIds":[]},"attachments":[{"id":5344863123}],"metadata":{"body":""}},{"engagement":{"id":487802290,"portalId":62515,"active":true,"createdAt":1505753577787,"lastUpdated":1505753577787,"ownerId":2978720,"type":"NOTE","timestamp":636413611774362912},"associations":{"contactIds":[860874],"companyIds":[],"dealIds":[],"ownerIds":[],"workflowIds":[],"ticketIds":[]},"metadata":{"body":"Oferta
        trimisa pentru John cruz. <br/>Oferta este la: . <br/>A fost trimisa de catre
        . <br/>"}},{"engagement":{"id":477165463,"portalId":62515,"active":true,"createdAt":1505120040426,"lastUpdated":1505120040426,"ownerId":2978720,"type":"NOTE","timestamp":636407168401561119},"associations":{"contactIds":[860674],"companyIds":[],"dealIds":[],"ownerIds":[],"workflowIds":[],"ticketIds":[]},"metadata":{"body":"Oferta
        trimisa pentru Recent Update Record11. <br/>Oferta este la: . <br/>A fost
        trimisa de catre . <br/>"}},{"engagement":{"id":476749355,"portalId":62515,"active":true,"createdAt":1504991330370,"lastUpdated":1504991330370,"ownerId":2978720,"type":"NOTE","timestamp":636405881296964903},"associations":{"contactIds":[860826],"companyIds":[],"dealIds":[],"ownerIds":[],"workflowIds":[],"ticketIds":[]},"metadata":{"body":"Oferta
        trimisa pentru Recent Update Record11. <br/>Oferta este la: . <br/>A fost
        trimisa de catre . <br/>"}},{"engagement":{"id":476941424,"portalId":62515,"active":true,"createdAt":1504991291584,"lastUpdated":1504991291584,"ownerId":2978720,"type":"NOTE","timestamp":636405880909872859},"associations":{"contactIds":[860826],"companyIds":[],"dealIds":[],"ownerIds":[],"workflowIds":[],"ticketIds":[]},"metadata":{"body":"Oferta
        trimisa pentru jon1 snow1. <br/>Oferta este la: . <br/>A fost trimisa de catre
        . <br/>"}},{"engagement":{"id":476941396,"portalId":62515,"active":true,"createdAt":1504991263101,"lastUpdated":1504991263101,"ownerId":2978720,"type":"NOTE","timestamp":636405880625534668},"associations":{"contactIds":[],"companyIds":[],"dealIds":[],"ownerIds":[],"workflowIds":[],"ticketIds":[]},"metadata":{"body":"Oferta
        trimisa pentru John cruz. <br/>Oferta este la: . <br/>A fost trimisa de catre
        . <br/>"}},{"engagement":{"id":476738685,"portalId":62515,"active":true,"createdAt":1504982168658,"lastUpdated":1504982168658,"ownerId":2978720,"type":"NOTE","timestamp":636405789679465749},"associations":{"contactIds":[860626],"companyIds":[],"dealIds":[],"ownerIds":[],"workflowIds":[],"ticketIds":[]},"metadata":{"body":"Oferta
        trimisa pentru John cruz. <br/>Oferta este la: . <br/>A fost trimisa de catre
        . <br/>"}},{"engagement":{"id":474046719,"portalId":62515,"active":true,"createdAt":1504799160193,"lastUpdated":1504799160193,"type":"NOTE","timestamp":1504799160193},"associations":{"contactIds":[4678224],"companyIds":[],"dealIds":[190069193],"ownerIds":[],"workflowIds":[],"ticketIds":[]},"attachments":[{"id":5329113179}],"metadata":{"body":"<strong>Storno-Rechnung
        importiert</strong>"}},{"engagement":{"id":474046718,"portalId":62515,"active":true,"createdAt":1504799160183,"lastUpdated":1504799160183,"type":"NOTE","timestamp":1504799160183},"associations":{"contactIds":[4678224],"companyIds":[],"dealIds":[190069193],"ownerIds":[],"workflowIds":[],"ticketIds":[]},"attachments":[{"id":5329113182}],"metadata":{"body":"<strong>
        Rechnung importiert</strong>"}},{"engagement":{"id":474319388,"portalId":62515,"active":true,"createdAt":1504799137931,"lastUpdated":1504799137931,"type":"NOTE","timestamp":1504799137931},"associations":{"contactIds":[4678224],"companyIds":[],"dealIds":[190069193],"ownerIds":[],"workflowIds":[],"ticketIds":[]},"attachments":[{"id":5329112961}],"metadata":{"body":"<strong>
        Rechnung importiert</strong>"}},{"engagement":{"id":474319387,"portalId":62515,"active":true,"createdAt":1504799137928,"lastUpdated":1504799137928,"type":"NOTE","timestamp":1504799137928},"associations":{"contactIds":[4678224],"companyIds":[],"dealIds":[190069193],"ownerIds":[],"workflowIds":[],"ticketIds":[]},"attachments":[{"id":5329112960}],"metadata":{"body":"<strong>Storno-Rechnung
        importiert</strong>"}},{"engagement":{"id":474046216,"portalId":62515,"active":true,"createdAt":1504799112825,"lastUpdated":1504799112825,"type":"NOTE","timestamp":1504799112825},"associations":{"contactIds":[4678224],"companyIds":[],"dealIds":[190069193],"ownerIds":[],"workflowIds":[],"ticketIds":[]},"attachments":[{"id":5329686030}],"metadata":{"body":"<strong>
        Rechnung importiert</strong>"}},{"engagement":{"id":474046204,"portalId":62515,"active":true,"createdAt":1504799112306,"lastUpdated":1504799112306,"type":"NOTE","timestamp":1504799112306},"associations":{"contactIds":[4678224],"companyIds":[],"dealIds":[190069193],"ownerIds":[],"workflowIds":[],"ticketIds":[]},"attachments":[{"id":5329686024}],"metadata":{"body":"<strong>Storno-Rechnung
        importiert</strong>"}},{"engagement":{"id":474313925,"portalId":62515,"active":true,"createdAt":1504798894159,"lastUpdated":1504798894159,"type":"NOTE","timestamp":1504798894159},"associations":{"contactIds":[4678274],"companyIds":[],"dealIds":[190069205],"ownerIds":[],"workflowIds":[],"ticketIds":[]},"attachments":[{"id":5329108894}],"metadata":{"body":"<strong>
        Rechnung importiert</strong>"}},{"engagement":{"id":474313923,"portalId":62515,"active":true,"createdAt":1504798894154,"lastUpdated":1504798894154,"type":"NOTE","timestamp":1504798894154},"associations":{"contactIds":[4678274],"companyIds":[],"dealIds":[190069205],"ownerIds":[],"workflowIds":[],"ticketIds":[]},"attachments":[{"id":5329108890}],"metadata":{"body":"<strong>Storno-Rechnung
        importiert</strong>"}},{"engagement":{"id":474042288,"portalId":62515,"active":true,"createdAt":1504798876870,"lastUpdated":1504798876870,"type":"NOTE","timestamp":1504798876870},"associations":{"contactIds":[4678274],"companyIds":[],"dealIds":[190069205],"ownerIds":[],"workflowIds":[],"ticketIds":[]},"attachments":[{"id":5329680490}],"metadata":{"body":"<strong>Storno-Rechnung
        importiert</strong>"}}],"hasMore":true,"offset":20,"total":169}'
    http_version: 
  recorded_at: Mon, 25 Sep 2017 10:30:00 GMT
recorded_with: VCR 2.4.0
